%YAML 1.1
%TAG !u! tag:unity3d.com,2011:
--- !u!74 &7400000
AnimationClip:
  m_ObjectHideFlags: 0
  m_CorrespondingSourceObject: {fileID: 0}
  m_PrefabInstance: {fileID: 0}
  m_PrefabAsset: {fileID: 0}
  m_Name: EnemyRun
  serializedVersion: 6
  m_Legacy: 0
  m_Compressed: 0
  m_UseHighQualityCurve: 1
  m_RotationCurves: []
  m_CompressedRotationCurves: []
  m_EulerCurves: []
  m_PositionCurves: []
  m_ScaleCurves: []
  m_FloatCurves: []
  m_PPtrCurves:
  - curve:
    - time: 0
      value: {fileID: 21300000, guid: 87bf25afc76af5e4fb70773eb216129a, type: 3}
    - time: 0.055555556
      value: {fileID: 21300000, guid: 0eda4db2e2c06b04b814deb8bf8e2a5d, type: 3}
    - time: 0.11111111
      value: {fileID: 21300000, guid: b5bc83b809d11a247812dd6865b2451d, type: 3}
    - time: 0.16666667
      value: {fileID: 21300000, guid: 928821a0befd99f4da1167b46591265b, type: 3}
    - time: 0.22222222
      value: {fileID: 21300000, guid: d834631468b949848a23199b0d9dd201, type: 3}
    - time: 0.2777778
      value: {fileID: 21300000, guid: 01eae37ba3f12d641ae65525d33e14c8, type: 3}
    attribute: m_Sprite
    path: 
    classID: 212
    script: {fileID: 0}
  m_SampleRate: 18
  m_WrapMode: 0
  m_Bounds:
    m_Center: {x: 0, y: 0, z: 0}
    m_Extent: {x: 0, y: 0, z: 0}
  m_ClipBindingConstant:
    genericBindings:
    - serializedVersion: 2
      path: 0
      attribute: 0
      script: {fileID: 0}
      typeID: 212
      customType: 23
      isPPtrCurve: 1
    pptrCurveMapping:
    - {fileID: 21300000, guid: 87bf25afc76af5e4fb70773eb216129a, type: 3}
    - {fileID: 21300000, guid: 0eda4db2e2c06b04b814deb8bf8e2a5d, type: 3}
    - {fileID: 21300000, guid: b5bc83b809d11a247812dd6865b2451d, type: 3}
    - {fileID: 21300000, guid: 928821a0befd99f4da1167b46591265b, type: 3}
    - {fileID: 21300000, guid: d834631468b949848a23199b0d9dd201, type: 3}
    - {fileID: 21300000, guid: 01eae37ba3f12d641ae65525d33e14c8, type: 3}
  m_AnimationClipSettings:
    serializedVersion: 2
    m_AdditiveReferencePoseClip: {fileID: 0}
    m_AdditiveReferencePoseTime: 0
    m_StartTime: 0
    m_StopTime: 0.33333334
    m_OrientationOffsetY: 0
    m_Level: 0
    m_CycleOffset: 0
    m_HasAdditiveReferencePose: 0
    m_LoopTime: 1
    m_LoopBlend: 0
    m_LoopBlendOrientation: 0
    m_LoopBlendPositionY: 0
    m_LoopBlendPositionXZ: 0
    m_KeepOriginalOrientation: 0
    m_KeepOriginalPositionY: 1
    m_KeepOriginalPositionXZ: 0
    m_HeightFromFeet: 0
    m_Mirror: 0
  m_EditorCurves: []
  m_EulerEditorCurves: []
  m_HasGenericRootTransform: 0
  m_HasMotionFloatCurves: 0
  m_Events: []
